"minutes","x1","y1","x2","y2"
0,33.6814788978026,21.3546913149634,29.518059159315,24.5035288012455
3.33333333333333,33.7257470465601,21.304169562196,29.5699957501063,24.6329791755206
6.66666666666667,33.8579435639737,21.9219559335137,29.3637661141805,24.5878913443831
10,34.197909252669,21.801334519573,28.9235331632653,23.9210778061224
13.3333333333333,34.2909290416971,22.52937088515,29.1605234460196,24.051254089422
16.6666666666667,34.0809198023565,22.8323451159255,29.0415699281371,23.6683803206191
20,33.4064457392571,23.2129643117261,29.301130952381,23.3979166666667
23.3333333333333,33.8920245398773,22.4854926019488,29.279452712434,23.9875180028805
26.6666666666667,34.0963376351587,22.2775723753052,29.6592659719076,24.0860444041686
30,34.2394624573379,21.5164249146758,30.4681801670904,24.0875771885216
33.3333333333333,34.0554609403925,21.9026286560533,30.1425925925926,24.4340740740741
36.6666666666667,34.0264705882353,21.8609625668449,29.7552952202437,24.5630740393627
40,33.8822485207101,22.1956143404107,29.2944138806602,24.5037663986458
43.3333333333333,33.9567525370804,22.51018735363,29.3368229587712,24.0987065481002
46.6666666666667,33.9165940594059,22.2307722772277,29.241968503937,23.9096456692913
50,34.2180952380952,22.2987047619048,29.3833552343408,23.842049934297
53.3333333333333,33.8681266102319,22.6129186602871,29.1037181150022,23.7339386078686
56.6666666666667,33.9678571428571,22.8970481049563,29.2741606459839,23.678453038674
60,34.2579978624866,22.9794798717492,29.633734402852,23.1822192513369
63.3333333333333,33.8011187890754,23.0852583086542,29.0454935622318,23.097472579876
66.6666666666667,34.0126164874552,23.0320071684588,29.4644599303136,23.0802700348432
70,33.7880820013899,22.9960041695622,29.1645749888741,23.3813529149978
73.3333333333333,33.998300870286,22.4655200994613,29.6970881531711,23.8588352612684
76.6666666666667,34.4774193548387,22.1517783291977,30.1802603800141,24.2307178043631
80,34.5673652694611,22.3001710863986,29.9641681260946,23.7616112084063
83.3333333333333,34.8300631578947,22.4479578947368,30.12586450247,23.6721594918843
86.6666666666667,35.0014341085271,22.9059302325581,30.0556265530706,23.3088036918708
90,34.5555,23.3358214285714,29.8796219281664,23.0769376181474
93.3333333333333,35.0351882160393,22.9210720130933,30.1144058885384,23.2899404135997
96.6666666666667,34.9727878563495,22.4935209181785,30.0954422556972,23.5305909617613
100,35.4791725601132,22.6054101838755,30.6857031857032,23.5061383061383
103.333333333333,35.578634594977,22.2585426246905,30.7107795598657,23.413315926893
106.666666666667,35.4754044239023,22.0394519643447,30.4765883977901,23.1446477900552
110,35.8258468335788,22.2994477172312,30.6913268832066,23.2535590877678
113.333333333333,35.8855503038487,22.3979405806887,30.655422955423,23.437557037557
116.666666666667,35.4971797485559,22.396160380564,30.4605628373169,23.3247108712413
120,35.6039649256576,21.8994662600076,30.7026808666911,23.480646345942
123.333333333333,35.7005555555556,21.7778518518519,30.6537163375224,23.5015080789946
126.666666666667,36.0603495145631,21.655067961165,30.6716230366492,22.9858638743455
130,36.1989053948397,21.8817826426896,30.5981,23.0398666666667
133.333333333333,36.2892024539877,22.0200408997955,30.5450204638472,23.0261596180082
136.666666666667,36.5736473335928,22.1370182950564,31.001454427925,22.9005171299289
140,36.8013126491647,21.793476531424,31.1530322580645,22.8702258064516
143.333333333333,36.3209142394822,21.9817961165049,30.9209286209286,22.8381843381843
146.666666666667,36.4407284768212,22.0392052980132,30.8357941834452,22.8617769255353
150,36.1406217254628,22.0454767726161,30.5357495373226,22.6153608883405
153.333333333333,36.0514114911989,22.3097641979409,30.3812539582014,22.4220075997467
156.666666666667,36.2053849389987,22.4428270929743,30.7907885791978,22.6656356220258
160,35.8022911694511,22.7065393794749,30.6010533469249,22.9092082908597
163.333333333333,35.9440414507772,22.4396137541215,30.6186398872445,23.2288935870331
166.666666666667,35.9813825275657,22.3982188295165,30.6396867838044,23.4450725744843
170,35.4375257731959,22.4277525773196,29.9627370156636,23.4699917559769
173.333333333333,35.2573166826769,22.3028178033942,29.5685477178423,23.5367634854772
176.666666666667,35.3687521136287,22.2264795400744,29.8178112376056,23.6263679764965
180,35.4009782265699,22.2330388135058,29.8384440227704,23.7834914611006
183.333333333333,35.3978802992519,21.9184226932668,29.9366830374008,23.9618435965244
186.666666666667,35.6260317460317,21.9334285714286,30.0170995670996,23.8832251082251
190,35.3283760683761,21.2598575498575,29.9372978799856,24.000934243622
193.333333333333,35.1649059734513,20.7895188053097,29.6608336203927,23.9503616947985
196.666666666667,35.5510143359481,20.41503922099,29.6067226890756,23.9054621848739
200,35.5360401955459,20.2439435089625,29.3241573033708,23.878125
203.333333333333,35.9005648197956,20.2212210866057,29.2963642541624,23.9218824328916
206.666666666667,35.9820366132723,19.7715102974828,29.4495991983968,23.5914161656647
210,36.5512195121951,20.1023139462164,30.282498210451,23.4804581245526
213.333333333333,36.7445515911283,20.1695596271295,30.2806473829201,23.867803030303
216.666666666667,36.6590507364975,19.9899836333879,30.2420709630702,24.0927950760319
220,36.8083355455269,19.9059729227502,30.1076365024819,23.827987781596
223.333333333333,36.9232104121475,20.2697125813449,30.1096268656716,23.8052611940298
226.666666666667,36.7148682385576,20.3709570041609,29.9605243445693,23.821872659176
230,36.6829649277925,20.3942528735632,30.1158806190125,23.3785924834193
233.333333333333,36.5642600359497,20.5323247453565,29.8697212676594,23.5609774723177
236.666666666667,36.5065402843602,20.5581358609795,29.6304964539007,23.5561403508772
240,36.5385545722714,20.1004424778761,29.9803418803419,23.3162393162393
243.333333333333,36.4078820697954,19.9071299638989,29.693904263276,23.1289080029918
246.666666666667,36.8318379645129,20.3785738198862,29.730442804428,23.4337269372694
250,37.3194879089616,19.8566856330014,29.7658227848101,23.5492136555428
253.333333333333,37.4523525018671,19.8679238237491,29.4872188905547,23.4383058470765
256.666666666667,37.57764,19.8638,29.3064420584968,23.2027767493521
260,37.6562089242477,19.3698028363888,29.4140262993112,22.7646211646838
