"minutes","x1","y1","x2","y2"
0,32.5106194690266,11.2943498978897,27.4377212745414,10.6254264563888
3.33333333333333,32.8351351351351,10.721819380356,27.4004235907462,10.0257412838058
6.66666666666667,32.4562237762238,10.3983566433566,27.3410410764873,9.69337818696884
10,31.938184370613,9.90519419747309,27.03696221474,9.60927796483352
13.3333333333333,31.6850831146107,10.015791776028,26.6533457249071,10.2298141263941
16.6666666666667,31.1941244239631,9.71904761904762,26.0006722689076,10.7210084033613
20,30.7160861759425,9.82226211849192,25.5468599033816,10.786231884058
23.3333333333333,31.2057787983161,10.5938767699962,26.5091875,10.4929375
26.6666666666667,31.0420210526316,11.0958736842105,26.6992915531335,10.0510354223433
30,30.9864579789044,10.0937733923103,27.0327307692308,10.9254230769231
33.3333333333333,29.8735340729002,9.39408346539884,27.4183913683178,11.9038254046101
36.6666666666667,29.2396796693361,8.96484112632395,28.0285093167702,11.9154037267081
40,30.5896706586826,9.29320359281437,27.7807172995781,11.8102953586498
43.3333333333333,31.2345641025641,9.6334358974359,27.2595403899721,11.4597493036212
46.6666666666667,31.5388776200135,9.85392156862745,27.4814959234314,11.8221198156682
50,31.6979370629371,9.70506993006993,27.7622983870968,11.4796774193548
53.3333333333333,31.8471494607088,10.0265023112481,27.9099625468165,11.838127340824
56.6666666666667,31.7664969450102,10.4216904276986,27.2613480055021,11.6204951856946
60,31.9474478792236,10.9975557153127,27.5119951534733,11.1373990306947
63.3333333333333,31.9,10.272504649721,27.7919514047077,11.204555808656
66.6666666666667,31.8746246688254,9.69193405946423,27.9555376344086,11.0160752688172
70,31.523542529468,9.47206116597642,29.0289649415693,12.2543405676127
73.3333333333333,31.828322094407,9.64752082506942,28.7799431587495,11.8013398294763
76.6666666666667,31.5637936558795,9.80099327138737,29.2141298417894,12.4327877795963
80,31.7217501585289,10.2969245402663,29.3095979899497,12.8208040201005
83.3333333333333,32.116208453016,10.4806319244973,27.9978347167088,11.62840129917
86.6666666666667,31.6925,10.1167857142857,27.9968367346939,11.5217857142857
90,31.9745430809399,10.032637075718,27.8280105866784,11.20714600794
93.3333333333333,31.7332903225806,10.3236559139785,27.5574724172518,10.9142928786359
96.6666666666667,32.0946399345336,10.1248363338789,27.9734815618221,10.9422993492408
100,31.9520353302611,10.251420890937,27.746479791395,11.2689048239896
103.333333333333,32.4280442804428,9.61619926199262,28.1734817813765,11.2865587044534
106.666666666667,32.135393258427,9.50891853932584,27.8782133090246,11.2161349134002
110,31.764288,10.024512,27.2189308484551,11.5980382540461
113.333333333333,31.5372724149777,9.94833390587427,27.0678298800436,11.280479825518
116.666666666667,31.6688316400581,9.80823657474601,27.6620955315871,12.4603697996918
120,32.0673764258555,9.79231939163498,28.1898069278819,12.0132311186826
123.333333333333,31.9072866065232,10.0369882026371,27.2767799871713,12.0076330981398
126.666666666667,31.5457232704403,10.2020125786164,26.9855021492771,11.8504103165299
130,31.7878655880523,9.8681705040448,27.0500591715976,11.4024457593688
133.333333333333,32.0735267452403,10.2604110003022,27.3658206987475,11.2960118655241
136.666666666667,32.2129305477132,10.6930265386787,27.2059748427673,11.8395527603075
140,32.7578352180937,10.8147819063005,26.9747837658017,11.9853626081171
143.333333333333,33.2335095137421,10.5712209302326,27.3592553565156,11.8194239550404
146.666666666667,33.382253440367,10.8567373853211,27.6002232973577,12.0130628954224
150,34.3290507599656,10.4251792371666,28.4139421514462,11.7532011699707
153.333333333333,34.7838477366255,9.7320987654321,29.2033017425864,12.0073677774381
156.666666666667,35.0371197411003,10.7008737864078,29.4512122119126,12.243489973062
160,35.3674613834788,10.7151779717931,29.3745248416139,12.1394131377126
163.333333333333,35.9275075570212,11.4002748007694,29.8635425156208,12.3347188264059
166.666666666667,35.5580316165222,11.8906680265171,28.9884626155139,12.1100252030244
170,35.5342085138924,12.2223553403008,29.2368025751073,12.4882510729614
173.333333333333,35.4159793814433,12.1705371676614,29.1184984299172,12.7581216100485
176.666666666667,35.4429772502473,12.2558605341246,28.6151852967761,12.1873455860199
180,35.4997100685293,12.3380337374802,28.7208975398756,12.4145174371452
183.333333333333,35.7027272727273,12.4205080213904,28.6451970126191,12.6142930723667
186.666666666667,36.139381443299,12.1093372606775,28.9470356768101,12.3682318992655
190,36.6651589242054,12.3145782396088,29.3618011636732,12.6605363015431
193.333333333333,36.7947721554375,12.3335476656416,29.4884717849358,12.4394768709131
196.666666666667,37.1972191629956,12.0519823788546,29.7539200415369,12.4098130841121
200,37.5270554984584,12.3001798561151,29.9117760617761,12.3234693877551
203.333333333333,37.931072555205,12.2178496319664,29.9452607964105,12.4068704430735
206.666666666667,38.7950867052023,12.2621650026274,30.3427138331573,12.3670274551214
210,38.9818023761229,11.7873659808751,30.8202345241342,12.1820561767112
213.333333333333,38.3259703196347,12.0567922374429,30.7342949582098,12.4197357778377
216.666666666667,37.7554842652001,12.1677054689887,30.331721798134,12.6986711902742
220,37.3177599009901,12.2774752475248,29.8841909662664,12.6738993710692
223.333333333333,36.9689160839161,12.3428321678322,29.4938786565547,12.8524918743229
226.666666666667,36.7610782608696,12.218747826087,29.3947295423024,12.9000832177531
230,37.0604879701796,11.8961707895629,29.9674962518741,12.9697451274363
233.333333333333,37.1666082076464,12.0004910557699,29.7142499217037,12.6782962730974
236.666666666667,37.7184771219001,11.7942368145302,29.9586253735398,12.7450421081228
240,37.9472657610589,11.3968652037618,29.9759101251422,12.6974118316268
243.333333333333,38.2296706776441,11.3912919569348,30.1227564926716,13.2304962715351
246.666666666667,38.0011150234742,11.8070715962441,30.0923675255226,12.9135634419057
250,37.746879850978,11.6248680533996,29.8975560594608,13.1480977576216
253.333333333333,37.8323854660348,11.4164612954186,29.5498595146871,13.288122605364
256.666666666667,37.7068811723479,11.581873208028,29.1246019825773,13.0016221087414
260,37.7318572372769,11.5376734963648,29.1949328449328,13.126221001221
263.333333333333,38.0793396534815,11.2764955867931,29.2191144371687,12.8370439663237
266.666666666667,38.5791150442478,11.2594336283186,29.2754509324366,12.578508101498
270,38.9822586656728,11.1651136787179,29.5822647527911,12.2483572567783
273.333333333333,38.7410564663024,11.1932604735883,29.3673094582185,12.229476584022
276.666666666667,38.4138169886985,11.332446226759,29.3148227383863,12.4008251833741
280,38.5178146411828,11.2604399567256,29.2846222753061,12.2867124514781
283.333333333333,38.5869933677229,10.9976050110538,29.355112923463,12.0539209535759
286.666666666667,38.7941031073446,10.9468220338983,29.3670117917745,12.2881794650561
290,39.4303097345133,10.9888274336283,28.693413830955,12.3962678375412
293.333333333333,39.5546055045872,10.8337247706422,28.893482688391,12.6299389002037
296.666666666667,40.2602094240838,10.5886312640239,29.6833502538071,12.1290693739425
300,40.3728173147469,10.6045121056493,29.7065370432451,12.1970834730137
303.333333333333,39.9886305848166,11.0227025063567,29.256268907563,12.2563025210084
306.666666666667,39.9805970149254,10.9043354655295,29.013,12.0622068965517
310,39.5586484593838,11.2693277310924,29.0824914675768,12.7861092150171
313.333333333333,39.474627898927,11.4596746278989,29.4263433813893,12.7042267365662
316.666666666667,39.6645228215768,11.2182226832642,29.2120574833509,12.2071503680336
320,39.8677442528736,11.1176364942529,29.5452753441802,12.2418961201502
323.333333333333,39.5116624411445,11.071785584933,29.426055408971,12.3912269129288
326.666666666667,40.0171122994652,11.0908734402852,29.7168727029736,11.9609421984631
